…
all_data <- all_data %>% 
  mutate(group = ifelse(`Patient ID` %in% kwown_cases, 'CMML', ifelse(grepl("^MEDECINE DU", `Doctor Name`), 'CTRL', 'OTHER')), .before = "Patient ID") %>%
  filter(!is.na(group)) %>%
  filter(duplicated("Sample No.") == F) %>%
  # removing uncertain values where the WBC is low
  mutate(across(c("[NE-WX]","[NE-WY]","[NE-WZ]","[MO-WX]","[MO-WY]","[MO-WZ]","[LY-WX]","[LY-WY]","[LY-WZ]"), ~ ifelse(`WBC(10^3/uL)` < 1 , NA, .x)))

all_data
```

```
## # A tibble: 220,823 × 250
##    Nickname    `Analyzer ID` Date       Time     Rack  Position `Sample No.`
##    <chr>       <chr>         <chr>      <time>   <chr>    <dbl> <chr>       
##  1 XN-3000-1-L XN-10^12328   04/07/2017 14:09:41 14           4 15171850602 
##  2 XN-3000-1-L XN-10^12328   04/07/2017 14:06:52 13           3 15171850663 
##  3 XN-3000-1-R XN-10^12327   04/07/2017 14:06:22 13           2 15171850667 
##  4 XN-3000-1-L XN-10^12328   04/07/2017 14:06:16 13           1 15171850664 
##  5 XN-3000-1-L XN-10^12328   04/07/2017 14:04:25 11           5 15171850668 
##  6 XN-3000-1-R XN-10^12327   04/07/2017 14:04:01 11           4 15171850658 
##  7 XN-3000-1-L XN-10^12328   04/07/2017 14:03:49 11           3 15171850659 
##  8 XN-3000-1-R XN-10^12327   04/07/2017 14:03:25 11           2 15171850654 
##  9 XN-3000-1-L XN-10^12328   04/07/2017 14:03:13 11           1 15171850469 
## 10 XN-3000-1-R XN-10^12327   04/07/2017 14:01:33 10           7 15171850651 
## # … with 220,813 more rows, and 243 more variables: `Sample Inf.` <chr>,
## #   `Order Type` <chr>, `Reception Date` <chr>, `Measurement Mode` <chr>,
## #   Discrete <chr>, group <chr>, `Patient ID` <chr>, `Analysis Info.` <chr>,
## #   Judgment <chr>, `Positive(Diff.)` <chr>, `Positive(Morph.)` <chr>,
## #   `Positive(Count)` <chr>, `Error(Func.)` <chr>, `Error(Result)` <chr>,
## #   `Order Info.` <dbl>, `WBC Abnormal` <dbl>, `WBC Suspect` <dbl>,
## #   `RBC Abnormal` <dbl>, `RBC Suspect` <dbl>, `PLT Abnormal` <dbl>, …
```

Select columns with the parameters


```r
param_columns <- seq(from = 90, to = 248, by = 2)
num_data <- all_data %>% .[, param_columns] %>% select(where(is.numeric)) 
num_data
```

```
## # A tibble: 220,823 × 80
##    `WBC(10^3/uL)` `RBC(10^6/uL)` `HGB(g/dL)` `HCT(%)` `MCV(fL)` `MCH(pg)`
##             <dbl>          <dbl>       <dbl>    <dbl>     <dbl>     <dbl>
##  1           5.23           4.53        14.4     41.7      92.1      31.8
##  2           9.05           4.14        12.6     38.8      93.7      30.4
##  3           8.34           4.4         12.5     38        86.4      28.4
##  4           6.3            4.52        11.6     35.2      77.9      25.7
##  5           9.44           3.74        11.9     35.2      94.1      31.8
##  6          14.7            3.66        11.6     36        98.4      31.7
##  7           6.83           5.11        14.6     44.5      87.1      28.6
##  8           5.83           5.32        13.3     42.7      80.3      25  
##  9           3.72           4.53        13       39.2      86.5      28.7
## 10           8.83           3.88         9.5     31.8      82        24.5
## # … with 220,813 more rows, and 74 more variables: `MCHC(g/dL)` <dbl>,
## #   `PLT(10^3/uL)` <dbl>, `RDW-SD(fL)` <dbl>, `RDW-CV(%)` <dbl>,
## #   `PDW(fL)` <dbl>, `MPV(fL)` <dbl>, `P-LCR(%)` <dbl>, `PCT(%)` <dbl>,
## #   `NRBC#(10^3/uL)` <dbl>, `NRBC%(%)` <dbl>, `NEUT#(10^3/uL)` <dbl>,
## #   `LYMPH#(10^3/uL)` <dbl>, `MONO#(10^3/uL)` <dbl>, `EO#(10^3/uL)` <dbl>,
## #   `BASO#(10^3/uL)` <dbl>, `NEUT%(%)` <dbl>, `LYMPH%(%)` <dbl>,
## #   `MONO%(%)` <dbl>, `EO%(%)` <dbl>, `BASO%(%)` <dbl>, `IG#(10^3/uL)` <dbl>, …
```
…
```r
welch_results <- matrixTests::col_t_welch(norm_num_data[all_data$group == 'CMML',], norm_num_data[all_data$group == 'CTRL',]) %>%
  mutate(`param` = rownames(.), .before = "obs.x") %>%
  as_tibble() %>%
  arrange(pvalue) %>%
  relocate(pvalue, .after = "param")

welch_results
```

```
## # A tibble: 79 × 18
##    param      pvalue obs.x obs.y obs.tot mean.x mean.y mean.diff   var.x   var.y
##    <chr>       <dbl> <int> <int>   <int>  <dbl>  <dbl>     <dbl>   <dbl>   <dbl>
##  1 RBC(10… 0           920   962    1882   3.27   4.63     -1.36 4.28e-1 2.47e-1
##  2 HGB(g/… 1.18e-278   920   962    1882   9.98  13.4      -3.44 3.67e+0 2.21e+0
##  3 HCT(%)  1.00e-271   920   962    1882  30.2   40.2     -10.0  3.46e+1 1.51e+1
##  4 [PLT-I… 2.53e-175   920   962    1882 109.   259.     -150.   1.55e+4 3.74e+3
##  5 PLT(10… 2.31e-174   920   962    1882 110.   259.     -150.   1.54e+4 3.76e+3
##  6 RDW-CV… 4.21e-167   917   962    1879  17.9   13.1       4.79 1.73e+1 2.52e+0
##  7 [NE-WX] 8.41e-161   690   948    1638 401.   315.       85.7  3.93e+3 2.14e+2
##  8 RDW-SD… 5.10e-159   917   962    1879  58.7   41.4      17.4  2.49e+2 1.72e+1
##  9 [NE-WZ] 5.71e-106   690   948    1638 683.   587.       96.7  9.12e+3 9.94e+2
## 10 MONO%(… 6.33e-101   784   948    1732  23.0    7.59     15.4  3.00e+2 4.26e+0
## # … with 69 more rows, and 8 more variables: stderr <dbl>, df <dbl>,
## #   statistic <dbl>, conf.low <dbl>, conf.high <dbl>, alternative <chr>,
## #   mean.null <dbl>, conf.level <dbl>
```
Based on these results we choose to keep uncorrelated parameters with significant difference between groups, we also choose to filter out raw counts parameters (impacted by blood transfusion) and we ended with: [NE-WX], RDW-SD(fL), PDW(fL).


```r
training_data <- all_data %>% select(c("group", "[NE-WX]", "RDW-SD(fL)", "PDW(fL)")) %>%
  filter(group %in% c('CMML', 'CTRL')) %>%
  mutate(group = ifelse(group == 'CMML', 1, 0)) %>%
  na.omit()

training_data
```

```
## # A tibble: 1,449 × 4
##    group `[NE-WX]` `RDW-SD(fL)` `PDW(fL)`
##    <dbl>     <dbl>        <dbl>     <dbl>
##  1     0       336         37.7      13.8
##  2     0       294         39.3      10.7
##  3     0       346         48.5       8.8
##  4     0       318         40.3      12.3
##  5     0       324         41.4      13.4
##  6     0       314         41.3      11.1
##  7     0       311         41.8      12.1
##  8     0       332         41        12.6
##  9     0       314         40.2      13.6
## 10     0       350         41.6       8.4
## # … with 1,439 more rows
```
…
